{
    "key": "my-add-on",
    "name": "Ping Pong",
    "description": "My very first add-on",
    "vendor": {
        "name": "Angry Nerds",
        "url": "https://www.atlassian.com/angrynerds"
    },
    "baseUrl": "{{localBaseUrl}}",
    "links": {
        "self": "{{localBaseUrl}}/atlassian-connect.json",
        "homepage": "{{localBaseUrl}}/atlassian-connect.json"
    },
    "authentication": {
        "type": "jwt"
    },
    "lifecycle": {
        // atlassian-connect-express expects this route to be configured to manage the installation handshake
        "installed": "/installed"
    },
    "modules": {
        "generalPages": [

            // JIRA - Add a Hello World menu item to the navigation bar
            {
                "key": "hello-world-page-jira",
                "location": "system.top.navigation.bar",
                "name": {
                    "value": "Hello World"
                },
                "url": "/hello-world",
                "conditions": [{
                    "condition": "user_is_logged_in"
                }]
            },

            // Confluence - Add a Hello World menu item to the navigation bar
            {
                "key": "hello-world-page-confluence",
                "location": "system.header/left",
                "name": {
                    "value": "Hello World"
                },
                "url": "/hello-world",
                "conditions": [{
                    "condition": "user_is_logged_in"
            }]
        }]
    },
    "scopes": ["read","READ","admin","ADMIN"]
}
